%YAML 1.1
%TAG !u! tag:unity3d.com,2011:
--- !u!1045 &1
EditorBuildSettings:
  m_ObjectHideFlags: 0
  serializedVersion: 2
  m_Scenes:
  - enabled: 1
    path: Assets/Scenes/JuegoPrincipal.unity
    guid: e4b3ae4e83042a64fb3bda08371d92e9
  m_configObjects:
    Unity.XR.Oculus.Settings: {fileID: 11400000, guid: 398d945149746a94899cafbfeddf8c9f,
      type: 2}
    Unity.XR.OpenVR.Settings: {fileID: 11400000, guid: 029c8a5a04fe30e418bd175b6a79d1f7,
      type: 2}
    com.unity.xr.management.loader_settings: {fileID: 11400000, guid: a422e2a2e6c83184e9b23d6413331359,
      type: 2}
